<?xml version="1.0" encoding="UTF-8" standalone="no"?>
<!-- Created with Inkscape (http://www.inkscape.org/) -->

<svg
   xmlns:dc="http://purl.org/dc/elements/1.1/"
   xmlns:cc="http://creativecommons.org/ns#"
   xmlns:rdf="http://www.w3.org/1999/02/22-rdf-syntax-ns#"
   xmlns:svg="http://www.w3.org/2000/svg"
   xmlns="http://www.w3.org/2000/svg"
   xmlns:xlink="http://www.w3.org/1999/xlink"
   xmlns:sodipodi="http://sodipodi.sourceforge.net/DTD/sodipodi-0.dtd"
   xmlns:inkscape="http://www.inkscape.org/namespaces/inkscape"
   width="48"
   height="48"
   viewBox="0 0 45 45"
   id="svg2"
   version="1.1"
   inkscape:version="0.92.5 (2060ec1f9f, 2020-04-08)"
   sodipodi:docname="PlaneDEMIntersection.svg"
   inkscape:export-filename="/home/mauro/Documents/projects/qgSurf/icons/PlaneDEMIntersection.png"
   inkscape:export-xdpi="127.76837"
   inkscape:export-ydpi="127.76837">
  <defs
     id="defs4">
    <linearGradient
       id="linearGradient1069"
       inkscape:collect="always">
      <stop
         id="stop1065"
         offset="0"
         style="stop-color:#ffcb00;stop-opacity:1" />
      <stop
         id="stop1067"
         offset="1"
         style="stop-color:#baff01;stop-opacity:1" />
    </linearGradient>
    <linearGradient
       inkscape:collect="always"
       id="linearGradient1033">
      <stop
         style="stop-color:#f26000;stop-opacity:1"
         offset="0"
         id="stop1029" />
      <stop
         style="stop-color:#faffff;stop-opacity:0.99823529"
         offset="1"
         id="stop1031" />
    </linearGradient>
    <linearGradient
       inkscape:collect="always"
       id="linearGradient1013">
      <stop
         style="stop-color:#1260ff;stop-opacity:1;"
         offset="0"
         id="stop1009" />
      <stop
         style="stop-color:#1260ff;stop-opacity:0;"
         offset="1"
         id="stop1011" />
    </linearGradient>
    <linearGradient
       inkscape:collect="always"
       xlink:href="#linearGradient1013"
       id="linearGradient1015"
       x1="392.18723"
       y1="176.22318"
       x2="412.37991"
       y2="279.87903"
       gradientUnits="userSpaceOnUse"
       gradientTransform="matrix(1.7859854,0,0,1.7860508,-1092.6071,-454.6361)" />
    <linearGradient
       inkscape:collect="always"
       xlink:href="#linearGradient1033"
       id="linearGradient1035"
       x1="436.13745"
       y1="279.03397"
       x2="431.24701"
       y2="175.82683"
       gradientUnits="userSpaceOnUse"
       gradientTransform="matrix(2.3611023,0,0,2.3611023,-494.19892,-176.30784)" />
    <linearGradient
       inkscape:collect="always"
       xlink:href="#linearGradient1069"
       id="linearGradient1063"
       x1="358.64487"
       y1="261.05121"
       x2="306.74979"
       y2="173.6048"
       gradientUnits="userSpaceOnUse"
       gradientTransform="matrix(-1.7859854,0,0,-1.7860508,1092.6071,454.6361)" />
    <linearGradient
       inkscape:collect="always"
       xlink:href="#linearGradient1033"
       id="linearGradient1081"
       gradientUnits="userSpaceOnUse"
       gradientTransform="matrix(-1.7859854,0,0,-1.7860508,1092.6071,454.6361)"
       x1="436.13745"
       y1="279.03397"
       x2="431.24701"
       y2="175.82683" />
  </defs>
  <sodipodi:namedview
     id="base"
     pagecolor="#ffffff"
     bordercolor="#666666"
     borderopacity="1.0"
     inkscape:pageopacity="0.0"
     inkscape:pageshadow="2"
     inkscape:zoom="8.663185"
     inkscape:cx="14.274861"
     inkscape:cy="22.707977"
     inkscape:document-units="px"
     inkscape:current-layer="g1074"
     showgrid="false"
     inkscape:window-width="1338"
     inkscape:window-height="744"
     inkscape:window-x="0"
     inkscape:window-y="0"
     inkscape:window-maximized="1"
     units="px" />
  <metadata
     id="metadata7">
    <rdf:RDF>
      <cc:Work
         rdf:about="">
        <dc:format>image/svg+xml</dc:format>
        <dc:type
           rdf:resource="http://purl.org/dc/dcmitype/StillImage" />
        <dc:title />
      </cc:Work>
    </rdf:RDF>
  </metadata>
  <g
     inkscape:label="Layer 1"
     inkscape:groupmode="layer"
     id="layer1"
     transform="translate(0,-1007.3622)">
    <g
       id="g1074"
       transform="matrix(-0.12871877,0,0,-0.12871877,77.539886,1029.2314)">
      <rect
         y="-170.74837"
         x="-602.13837"
         height="350.23315"
         width="350.22031"
         id="rect983"
         style="opacity:0.654;fill:url(#linearGradient1015);fill-opacity:1;stroke:none;stroke-width:2.94271064;stroke-miterlimit:4;stroke-dasharray:none;stroke-dashoffset:0;stroke-opacity:1"
         transform="scale(-1)" />
      <path
         sodipodi:nodetypes="csssscccccccccccc"
         inkscape:connector-curvature="0"
         id="path1017"
         d="m 601.33694,-103.34712 c 0,0 -45.68091,26.447804 -57.70218,37.668082 -12.02131,11.220293 -30.45397,18.433326 -42.47525,31.256509 -12.02129,12.823184 -29.65252,44.881135 -44.07806,48.888372 -14.42555,4.007237 -39.26956,24.043461 -42.47523,27.249265 -3.20569,3.205796 -14.42557,14.426074 -16.82981,17.63187 -2.40428,3.205803 -21.63832,28.85217 -24.844,32.057973 -3.20568,3.205781 -16.0284,22.440549 -16.0284,22.440549 0,0 -8.8156,20.83767 -12.02129,7.21306 -3.20566,-13.62464 -18.43265,-24.844938 -21.63834,-27.249285 -3.20568,-2.404324 -24.844,-25.646351 -24.844,-25.646351 0,0 -20.83689,-0.801449 -22.43972,-14.426089 C 274.3578,40.11221 259.13083,36.906414 259.13083,36.906414 L 250.31521,6.4513686 251.91803,-179.48475 h 350.22034 z"
         style="fill:url(#linearGradient1081);fill-opacity:1;stroke:none;stroke-width:1.67439198px;stroke-linecap:butt;stroke-linejoin:miter;stroke-opacity:1;opacity:0.76" />
      <path
         sodipodi:nodetypes="cccccccccc"
         inkscape:connector-curvature="0"
         id="path1039"
         d="m 602.13835,73.773074 -349.41887,-3.205803 6.41135,-33.660857 17.44608,-7.630471 57.71221,-24.7366629 73.93491,-22.0711441 50.55621,-11.729996 68.0247,-25.998342 76.13486,63.3144609 z"
         style="opacity:0.399;fill:url(#linearGradient1063);fill-opacity:1;stroke:none;stroke-width:1.67439198px;stroke-linecap:butt;stroke-linejoin:miter;stroke-opacity:1" />
    </g>
  </g>
</svg>
